Get historical TRX price data — get_trx_ohlc_data_for_last_n_days • tronr
…
1 day: 30 minutes

7 - 30 days: 4 hours

31 and above: 4 days

    Examples

r <- get_trx_ohlc_data_for_last_n_days(days = 7)
print(r)

#> # A tibble: 43 x 6
#>    timestamp           vs_currency price_open price_high price_low price_close
#>    <dttm>              <chr>            <dbl>      <dbl>     <dbl>       <dbl>
#>  1 2021-03-06 20:00:00 usd             0.0505     0.0505    0.0503      0.0503
#>  2 2021-03-07 00:00:00 usd             0.0499     0.0504    0.0497      0.0504
#>  3 2021-03-07 04:00:00 usd             0.0503     0.0507    0.0502      0.0507
#>  4 2021-03-07 08:00:00 usd             0.0505     0.0510    0.0504      0.0507
#>  5 2021-03-07 12:00:00 usd             0.0512     0.0515    0.0510      0.0511
#>  6 2021-03-07 16:00:00 usd             0.0514     0.0515    0.0508      0.0508
#>  7 2021-03-07 20:00:00 usd             0.0510     0.0514    0.0510      0.0512
#>  8 2021-03-08 00:00:00 usd             0.0512     0.0514    0.0510      0.0514
#>  9 2021-03-08 04:00:00 usd             0.0519     0.0519    0.0510      0.0510
#> 10 2021-03-08 08:00:00 usd             0.0510     0.0517    0.0508      0.0508
#> # … with 33 more rows
…
