Get events of latest block — get_events_of_latest_block • tronr
…
    The exact content of event_data in the tibble returned by this
function will be contract- and event-specific. Thus, these data are
returned in the form of a named R list as-is, i.e. without any
processing. Users are advised to develop their own, task-specific, logic
to process event attributes.

    Examples

r <- get_events_of_latest_block()

#> 
#> - Fetching data... Elapsed time: 00:00:00
print(r)

#> # A tibble: 22 x 6
#>    tx_id block_number timestamp           contract_address event_name event_data
#>    <chr> <chr>        <dttm>              <chr>            <chr>      <list>    
#>  1 bd9f… 27876872     2021-02-22 18:34:24 TR7NHqjeKQxGTCi… Transfer   <named li…
#>  2 091a… 27876872     2021-02-22 18:34:24 TWmhXhXjgXTj87t… DiceCreate <named li…
#>  3 2430… 27876872     2021-02-22 18:34:24 TFRLPB1kiCyKRSM… RingCreate <named li…
#>  4 8feb… 27876872     2021-02-22 18:34:24 TKttnV3FSY1iEoA… Approval   <named li…
#>  5 5fd3… 27876872     2021-02-22 18:34:24 TR7NHqjeKQxGTCi… Transfer   <named li…
#>  6 0500… 27876872     2021-02-22 18:34:24 TQn9Y2khEsLJW1C… Snapshot   <named li…
#>  7 0500… 27876872     2021-02-22 18:34:24 TQn9Y2khEsLJW1C… TokenPurc… <named li…
#>  8 0500… 27876872     2021-02-22 18:34:24 TR7NHqjeKQxGTCi… Transfer   <named li…
#>  9 0d0e… 27876872     2021-02-22 18:34:24 TWmhXhXjgXTj87t… DiceCreate <named li…
#> 10 2947… 27876872     2021-02-22 18:34:24 TK8gFGEomQJ6e4k… Snapshot   <named li…
#> # … with 12 more rows
…
