Get transactions for a time range — get_tx_for_time_range • tronr
…
#> 
#> Processing data... [==============================================>-----]  90%
#> 
#> Processing data... [===============================================>----]  93%
#> 
#> Processing data... [================================================>---]  95%
#> 
#> Processing data... [==================================================>-]  98%
#> 
#> Processing data... [====================================================] 100%
#>                                                                               
#> 
print(tx_df)

#> # A tibble: 41 x 20
#>    request_time        tx_id    block_number timestamp           contract_result
#>    <dttm>              <chr>    <chr>        <dttm>              <chr>          
#>  1 2021-07-12 22:04:08 5f13111… 15860581     2020-01-01 00:00:00 SUCCESS        
#>  2 2021-07-12 22:04:08 a186fc1… 15860581     2020-01-01 00:00:00 SUCCESS        
#>  3 2021-07-12 22:04:09 bf9c96d… 15860581     2020-01-01 00:00:00 SUCCESS        
#>  4 2021-07-12 22:04:10 f342f3e… 15860581     2020-01-01 00:00:00 SUCCESS        
#>  5 2021-07-12 22:04:10 90ee18d… 15860581     2020-01-01 00:00:00 SUCCESS        
#>  6 2021-07-12 22:04:10 0c01304… 15860581     2020-01-01 00:00:00 SUCCESS        
#>  7 2021-07-12 22:04:11 bcfbf1b… 15860581     2020-01-01 00:00:00 SUCCESS        
#>  8 2021-07-12 22:04:11 b9889be… 15860581     2020-01-01 00:00:00 SUCCESS        
#>  9 2021-07-12 22:04:11 44b123a… 15860581     2020-01-01 00:00:00 SUCCESS        
#> 10 2021-07-12 22:04:11 084d57b… 15860581     2020-01-01 00:00:00 SUCCESS        
#> # … with 31 more rows, and 15 more variables: confirmed <lgl>,
#> #   confirmations_count <int>, sr_confirm_list <list>, contract_type <chr>,
#> #   from_address <chr>, to_address <chr>, is_contract_from_address <lgl>,
#> #   is_contract_to_address <lgl>, costs <list>, trx_transfer <dbl>,
#> #   trc10_transfer <list>, trc20_transfer <lgl>, internal_tx <list>,
#> #   info <lgl>, contract_data <list>
…
