Market data for Tronix (TRX) • tronr
…
# Range of >90 days:
(min_timestamp <- as.POSIXct("2020-01-01 00:00:00") %>% to_unix_timestamp())
#> [1] "1577836800000"
(max_timestamp = as.POSIXct("2020-05-01 00:00:00") %>% to_unix_timestamp())
#> [1] "1588291200000"

get_trx_market_data_for_time_range(
  vs_currency = "usd",
  min_timestamp = min_timestamp,
  max_timestamp = max_timestamp
)
#> # A tibble: 122 x 5
#>    timestamp           vs_currency  price total_trading_vol market_cap
#>    <dttm>              <chr>        <dbl>             <dbl>      <dbl>
#>  1 2020-01-01 00:00:00 usd         0.0133       1134528759. 877119319.
#>  2 2020-01-02 00:00:00 usd         0.0132       1032624901. 872350811.
#>  3 2020-01-03 00:00:00 usd         0.0128       1056549454. 848482045.
#>  4 2020-01-04 00:00:00 usd         0.0134       1168793811. 885589788.
#>  5 2020-01-05 00:00:00 usd         0.0134       1033957595. 888326322.
#>  6 2020-01-06 00:00:00 usd         0.0135       1138776203. 893369823.
#>  7 2020-01-07 00:00:00 usd         0.0145       1286051294. 955193949.
#>  8 2020-01-08 00:00:00 usd         0.0144       1232245488. 950130927.
#>  9 2020-01-09 00:00:00 usd         0.0140       1149165537. 923243641.
#> 10 2020-01-10 00:00:00 usd         0.0140       1029207693. 924240156.
#> # … with 112 more rows
…
get_trx_market_data_for_time_range(
  vs_currency = "usd",
  min_timestamp = min_timestamp,
  max_timestamp = max_timestamp
)
#> Error: Cannot retrieve data for future dates. Check the `max_timestamp` argument

Querying the last n days

As a variant of querying a range of historical dates, one can use the get_trx_market_data_for_last_n_days() function to retrieve TRX market data for a number of recent dates (as of, and including, the current date):

get_trx_market_data_for_last_n_days(vs_currency = "usd", days = 7)
#> # A tibble: 169 x 5
#>    timestamp           vs_currency  price total_trading_vol  market_cap
#>    <dttm>              <chr>        <dbl>             <dbl>       <dbl>
#>  1 2021-02-15 19:13:15 usd         0.0544       3091164367. 3883248321.
#>  2 2021-02-15 20:00:11 usd         0.0541       3092169712. 3876906096.
#>  3 2021-02-15 21:13:47 usd         0.0534       3071696112. 3818418859.
#>  4 2021-02-15 22:10:27 usd         0.0517       3024883580. 3721589401.
#>  5 2021-02-15 23:14:05 usd         0.0518       3105766671. 3715545122.
#>  6 2021-02-16 00:04:37 usd         0.0505       3074598871. 3637384659.
#>  7 2021-02-16 01:26:25 usd         0.0518       3220458195. 3692209873.
#>  8 2021-02-16 02:01:50 usd         0.0521       3175445835. 3741883339.
#>  9 2021-02-16 03:03:53 usd         0.0527       2973367386. 3782971304.
#> 10 2021-02-16 04:04:39 usd         0.0532       3025458851. 3796541150.
#> # … with 159 more rows

In addition to accepting numeric values, the days argument can also accept a character value "max", which will result in retrieving the entire existing history of TRX market data:

hist_max <- get_trx_market_data_for_last_n_days(vs_currency = "usd", days = "max")

hist_max
#> # A tibble: 1,202 x 5
#>    timestamp           vs_currency   price total_trading_vol market_cap
#>    <dttm>              <chr>         <dbl>             <dbl>      <dbl>
#>  1 2017-11-09 00:00:00 usd         0.00239          1224287. 156404162.
#>  2 2017-11-10 00:00:00 usd         0.00204           990423. 133968506.
#>  3 2017-11-11 00:00:00 usd         0.00191           707643. 125470649.
#>  4 2017-11-12 00:00:00 usd         0.00180           814789. 118235246.
#>  5 2017-11-13 00:00:00 usd         0.00202           894986. 132386427.
#>  6 2017-11-14 00:00:00 usd         0.00242          1073924. 158479487.
#>  7 2017-11-15 00:00:00 usd         0.00232          1179822. 152242301.
#>  8 2017-11-16 00:00:00 usd         0.00225          1324833. 147470996.
#>  9 2017-11-17 00:00:00 usd         0.00202          1905625. 132729589.
#> 10 2017-11-18 00:00:00 usd         0.00202          2184964. 132693857.
#> # … with 1,192 more rows
…
# More than 90 days, with `interval = "daily"`:
get_trx_market_data_for_last_n_days(
  vs_currency = "usd",
  days = 100,
  interval = "daily"
)
#> # A tibble: 101 x 5
#>    timestamp           vs_currency  price total_trading_vol  market_cap
#>    <dttm>              <chr>        <dbl>             <dbl>       <dbl>
#>  1 2020-11-15 00:00:00 usd         0.0251        638371882. 1802217154.
#>  2 2020-11-16 00:00:00 usd         0.0253        657249345. 1810243224.
#>  3 2020-11-17 00:00:00 usd         0.0254        614383771. 1819393730.
#>  4 2020-11-18 00:00:00 usd         0.0264        797296066. 1890051320.
#>  5 2020-11-19 00:00:00 usd         0.0269       1061617079. 1930287884.
#>  6 2020-11-20 00:00:00 usd         0.0258        762903574. 1846615827.
#>  7 2020-11-21 00:00:00 usd         0.0262        791787366. 1879975405.
#>  8 2020-11-22 00:00:00 usd         0.0304       1650443139. 2173231120.
#>  9 2020-11-23 00:00:00 usd         0.0288       1569408333. 2076527478.
#> 10 2020-11-24 00:00:00 usd         0.0315       1448663967. 2240811284.
#> # … with 91 more rows
…
Querying the OHLC data for the last n days

The open-high-low-close (OHLC) data characterise within-date and between-date price movements of a financial asset. This type of data for TRX can be retrieved using the get_trx_ohlc_data_for_last_n_days() function, which has the same arguments as get_trx_market_data_for_last_n_days(), except for not having the interval argument. Granularity of the retrieved data (i.e. candle’s body) depends on the value of days as follows:

1 day: 30 minutes

7 - 30 days: 4 hours

31 and above: 4 days

The only values currently accepted by the days argument are 1, 7, 14, 30, 90, 180, 365 and "max". Here are some examples:

# 30-min granularity:
get_trx_ohlc_data_for_last_n_days(vs_currency = "usd", days = 1)
#> # A tibble: 49 x 6
#>    timestamp           vs_currency price_open price_high price_low price_close
#>    <dttm>              <chr>            <dbl>      <dbl>     <dbl>       <dbl>
#>  1 2021-02-21 18:30:00 usd             0.0603     0.0604    0.0603      0.0603
#>  2 2021-02-21 19:00:00 usd             0.0602     0.0606    0.0602      0.0606
#>  3 2021-02-21 19:30:00 usd             0.0607     0.0610    0.0606      0.0606
#>  4 2021-02-21 20:00:00 usd             0.0607     0.0609    0.0607      0.0608
#>  5 2021-02-21 20:30:00 usd             0.0609     0.0609    0.0603      0.0604
#>  6 2021-02-21 21:00:00 usd             0.0603     0.0604    0.0602      0.0602
#>  7 2021-02-21 21:30:00 usd             0.0599     0.0600    0.0596      0.0596
#>  8 2021-02-21 22:00:00 usd             0.0595     0.0595    0.0591      0.0592
#>  9 2021-02-21 22:30:00 usd             0.0586     0.0594    0.0586      0.0594
#> 10 2021-02-21 23:00:00 usd             0.0593     0.0593    0.0589      0.0590
#> # … with 39 more rows

# 4-hours granularity:
get_trx_ohlc_data_for_last_n_days(vs_currency = "usd", days = 7)
#> # A tibble: 43 x 6
#>    timestamp           vs_currency price_open price_high price_low price_close
#>    <dttm>              <chr>            <dbl>      <dbl>     <dbl>       <dbl>
#>  1 2021-02-15 20:00:00 usd             0.0544     0.0544    0.0544      0.0544
#>  2 2021-02-16 00:00:00 usd             0.0541     0.0541    0.0517      0.0518
#>  3 2021-02-16 04:00:00 usd             0.0505     0.0527    0.0505      0.0527
#>  4 2021-02-16 08:00:00 usd             0.0532     0.0547    0.0532      0.0538
#>  5 2021-02-16 12:00:00 usd             0.0529     0.0533    0.0529      0.0533
#>  6 2021-02-16 16:00:00 usd             0.0524     0.0527    0.0518      0.0523
#>  7 2021-02-16 20:00:00 usd             0.0520     0.0520    0.0509      0.0513
#>  8 2021-02-17 00:00:00 usd             0.0509     0.0515    0.0504      0.0515
#>  9 2021-02-17 04:00:00 usd             0.0523     0.0523    0.0514      0.0517
#> 10 2021-02-17 08:00:00 usd             0.0507     0.0507    0.0495      0.0505
#> # … with 33 more rows

# 4-days granularity:
get_trx_ohlc_data_for_last_n_days(vs_currency = "usd", days = 90)
#> # A tibble: 24 x 6
#>    timestamp           vs_currency price_open price_high price_low price_close
#>    <dttm>              <chr>            <dbl>      <dbl>     <dbl>       <dbl>
#>  1 2020-11-27 00:00:00 usd             0.0350     0.0350    0.0294      0.0294
#>  2 2020-11-30 00:00:00 usd             0.0294     0.0306    0.0294      0.0306
#>  3 2020-12-03 00:00:00 usd             0.0322     0.0322    0.0304      0.0312
#>  4 2020-12-07 00:00:00 usd             0.0316     0.0316    0.0296      0.0309
#>  5 2020-12-11 00:00:00 usd             0.0303     0.0303    0.0279      0.0282
#>  6 2020-12-15 00:00:00 usd             0.0278     0.0292    0.0278      0.0291
#>  7 2020-12-19 00:00:00 usd             0.0292     0.0312    0.0292      0.0312
#>  8 2020-12-23 00:00:00 usd             0.0313     0.0313    0.0290      0.0290
#>  9 2020-12-27 00:00:00 usd             0.0250     0.0284    0.0250      0.0278
#> 10 2020-12-31 00:00:00 usd             0.0288     0.0296    0.0270      0.0270
#> # … with 14 more rows

# 4-days granularity:
get_trx_ohlc_data_for_last_n_days(vs_currency = "usd", days = "max")
#> # A tibble: 314 x 6
#>    timestamp           vs_currency price_open price_high price_low price_close
#>    <dttm>              <chr>            <dbl>      <dbl>     <dbl>       <dbl>
#>  1 2017-11-11 00:00:00 usd            0.00239    0.00239   0.00192     0.00192
#>  2 2017-11-15 00:00:00 usd            0.00180    0.00242   0.00180     0.00232
#>  3 2017-11-19 00:00:00 usd            0.00225    0.00225   0.00198     0.00198
#>  4 2017-11-23 00:00:00 usd            0.00213    0.00233   0.00213     0.00214
#>  5 2017-11-27 00:00:00 usd            0.00207    0.00211   0.00202     0.00209
#>  6 2017-11-30 00:00:00 usd            0.00239    0.00239   0.00205     0.00231
#>  7 2017-12-03 00:00:00 usd            0.00214    0.00214   0.0021      0.0021 
#>  8 2017-12-07 00:00:00 usd            0.00215    0.00393   0.00214     0.00393
#>  9 2017-12-11 00:00:00 usd            0.00424    0.00514   0.00424     0.00514
#> 10 2017-12-15 00:00:00 usd            0.00754    0.0176    0.00754     0.0176 
#> # … with 304 more rows
…
